03:52:42,532   INFO STDOUTERR:15 - Redirect StdOut and StdErr
03:52:42,535   INFO ScenarioRunSubCommand:52 - Created output directory: C:\Users\aganb\Desktop\MLCrowd\HW3\ex_5\outputs\alpha_4.5
03:52:43,009 STDOUT STDOUTERR:22 - Topography Warning:
   A source and a target element overlap in scenario. 
   A source and a target element overlap in scenario. 

03:52:43,043   INFO ScenarioRun:124 - Initializing scenario. Start of scenario 'Bottleneck bifurcation'...
03:52:43,044   INFO ScenarioRun:126 - StartIt Bottleneck bifurcation
03:52:43,047   INFO ScenarioRun:105 - scenario context initialized.
03:52:43,062   INFO VadereConfig:70 - Use config file from path C:\Users\aganb\.config\vadere.conf
03:52:43,335   INFO PotentialFieldDistancesBruteForce:47 - initialize floor field (PotentialFieldDistancesBruteForce)
03:52:43,497   INFO PotentialFieldDistancesBruteForce:82 - floor field initialization time:144[ms]
03:52:43,502   INFO Topography:351 - Set PedestrianIdCount to start value: 1
03:52:43,607   INFO EikonalSolverDefaultProvider:23 - floor field initialization time:79[ms]
03:52:43,666   INFO EikonalSolverDefaultProvider:23 - floor field initialization time:53[ms]
03:53:06,928   INFO Simulation:332 - Finished writing all output files
03:53:06,928   INFO ScenarioRun:177 - Simulation of scenario Bottleneck bifurcation finished.
03:53:07,867   INFO STDOUTERR:15 - Redirect StdOut and StdErr
03:53:07,871   INFO ScenarioRunSubCommand:52 - Created output directory: C:\Users\aganb\Desktop\MLCrowd\HW3\ex_5\outputs\alpha_4.4
03:53:08,410 STDOUT STDOUTERR:22 - Topography Warning:
   A source and a target element overlap in scenario. 
   A source and a target element overlap in scenario. 

03:53:08,469   INFO ScenarioRun:124 - Initializing scenario. Start of scenario 'Bottleneck bifurcation'...
03:53:08,470   INFO ScenarioRun:126 - StartIt Bottleneck bifurcation
03:53:08,473   INFO ScenarioRun:105 - scenario context initialized.
03:53:08,498   INFO VadereConfig:70 - Use config file from path C:\Users\aganb\.config\vadere.conf
03:53:08,931   INFO PotentialFieldDistancesBruteForce:47 - initialize floor field (PotentialFieldDistancesBruteForce)
03:53:09,044   INFO PotentialFieldDistancesBruteForce:82 - floor field initialization time:113[ms]
03:53:09,044   INFO Topography:351 - Set PedestrianIdCount to start value: 1
03:53:09,129   INFO EikonalSolverDefaultProvider:23 - floor field initialization time:60[ms]
03:53:09,185   INFO EikonalSolverDefaultProvider:23 - floor field initialization time:49[ms]
03:53:30,309   INFO Simulation:332 - Finished writing all output files
03:53:30,309   INFO ScenarioRun:177 - Simulation of scenario Bottleneck bifurcation finished.
03:53:31,134   INFO STDOUTERR:15 - Redirect StdOut and StdErr
03:53:31,149   INFO ScenarioRunSubCommand:52 - Created output directory: C:\Users\aganb\Desktop\MLCrowd\HW3\ex_5\outputs\alpha_4.300000000000001
03:53:31,463 STDOUT STDOUTERR:22 - Topography Warning:
   A source and a target element overlap in scenario. 
   A source and a target element overlap in scenario. 

03:53:31,494   INFO ScenarioRun:124 - Initializing scenario. Start of scenario 'Bottleneck bifurcation'...
03:53:31,494   INFO ScenarioRun:126 - StartIt Bottleneck bifurcation
03:53:31,494   INFO ScenarioRun:105 - scenario context initialized.
03:53:31,510   INFO VadereConfig:70 - Use config file from path C:\Users\aganb\.config\vadere.conf
03:53:31,744   INFO PotentialFieldDistancesBruteForce:47 - initialize floor field (PotentialFieldDistancesBruteForce)
03:53:31,853   INFO PotentialFieldDistancesBruteForce:82 - floor field initialization time:109[ms]
03:53:31,853   INFO Topography:351 - Set PedestrianIdCount to start value: 1
03:53:31,916   INFO EikonalSolverDefaultProvider:23 - floor field initialization time:47[ms]
03:53:31,947   INFO EikonalSolverDefaultProvider:23 - floor field initialization time:16[ms]
03:53:52,262   INFO Simulation:332 - Finished writing all output files
03:53:52,262   INFO ScenarioRun:177 - Simulation of scenario Bottleneck bifurcation finished.
03:53:53,164   INFO STDOUTERR:15 - Redirect StdOut and StdErr
03:53:53,175   INFO ScenarioRunSubCommand:52 - Created output directory: C:\Users\aganb\Desktop\MLCrowd\HW3\ex_5\outputs\alpha_4.200000000000001
03:53:53,505 STDOUT STDOUTERR:22 - Topography Warning:
   A source and a target element overlap in scenario. 
   A source and a target element overlap in scenario. 

03:53:53,536   INFO ScenarioRun:124 - Initializing scenario. Start of scenario 'Bottleneck bifurcation'...
03:53:53,536   INFO ScenarioRun:126 - StartIt Bottleneck bifurcation
03:53:53,536   INFO ScenarioRun:105 - scenario context initialized.
03:53:53,551   INFO VadereConfig:70 - Use config file from path C:\Users\aganb\.config\vadere.conf
03:53:53,801   INFO PotentialFieldDistancesBruteForce:47 - initialize floor field (PotentialFieldDistancesBruteForce)
03:53:53,911   INFO PotentialFieldDistancesBruteForce:82 - floor field initialization time:94[ms]
03:53:53,911   INFO Topography:351 - Set PedestrianIdCount to start value: 1
03:53:53,989   INFO EikonalSolverDefaultProvider:23 - floor field initialization time:62[ms]
03:53:54,036   INFO EikonalSolverDefaultProvider:23 - floor field initialization time:47[ms]
03:54:14,214   INFO Simulation:332 - Finished writing all output files
03:54:14,214   INFO ScenarioRun:177 - Simulation of scenario Bottleneck bifurcation finished.
03:54:15,060   INFO STDOUTERR:15 - Redirect StdOut and StdErr
03:54:15,060   INFO ScenarioRunSubCommand:52 - Created output directory: C:\Users\aganb\Desktop\MLCrowd\HW3\ex_5\outputs\alpha_4.100000000000001
03:54:15,388 STDOUT STDOUTERR:22 - Topography Warning:
   A source and a target element overlap in scenario. 
   A source and a target element overlap in scenario. 

03:54:15,420   INFO ScenarioRun:124 - Initializing scenario. Start of scenario 'Bottleneck bifurcation'...
03:54:15,420   INFO ScenarioRun:126 - StartIt Bottleneck bifurcation
03:54:15,420   INFO ScenarioRun:105 - scenario context initialized.
03:54:15,435   INFO VadereConfig:70 - Use config file from path C:\Users\aganb\.config\vadere.conf
03:54:15,685   INFO PotentialFieldDistancesBruteForce:47 - initialize floor field (PotentialFieldDistancesBruteForce)
03:54:15,779   INFO PotentialFieldDistancesBruteForce:82 - floor field initialization time:94[ms]
03:54:15,779   INFO Topography:351 - Set PedestrianIdCount to start value: 1
03:54:15,841   INFO EikonalSolverDefaultProvider:23 - floor field initialization time:46[ms]
03:54:15,904   INFO EikonalSolverDefaultProvider:23 - floor field initialization time:47[ms]
03:54:36,331   INFO Simulation:332 - Finished writing all output files
03:54:36,331   INFO ScenarioRun:177 - Simulation of scenario Bottleneck bifurcation finished.
03:54:37,297   INFO STDOUTERR:15 - Redirect StdOut and StdErr
03:54:37,297   INFO ScenarioRunSubCommand:52 - Created output directory: C:\Users\aganb\Desktop\MLCrowd\HW3\ex_5\outputs\alpha_4.000000000000002
03:54:37,689 STDOUT STDOUTERR:22 - Topography Warning:
   A source and a target element overlap in scenario. 
   A source and a target element overlap in scenario. 

03:54:37,721   INFO ScenarioRun:124 - Initializing scenario. Start of scenario 'Bottleneck bifurcation'...
03:54:37,721   INFO ScenarioRun:126 - StartIt Bottleneck bifurcation
03:54:37,721   INFO ScenarioRun:105 - scenario context initialized.
03:54:37,736   INFO VadereConfig:70 - Use config file from path C:\Users\aganb\.config\vadere.conf
03:54:38,034   INFO PotentialFieldDistancesBruteForce:47 - initialize floor field (PotentialFieldDistancesBruteForce)
03:54:38,144   INFO PotentialFieldDistancesBruteForce:82 - floor field initialization time:110[ms]
03:54:38,144   INFO Topography:351 - Set PedestrianIdCount to start value: 1
03:54:38,222   INFO EikonalSolverDefaultProvider:23 - floor field initialization time:63[ms]
03:54:38,269   INFO EikonalSolverDefaultProvider:23 - floor field initialization time:47[ms]
03:55:01,139   INFO Simulation:332 - Finished writing all output files
03:55:01,139   INFO ScenarioRun:177 - Simulation of scenario Bottleneck bifurcation finished.
03:55:02,031   INFO STDOUTERR:15 - Redirect StdOut and StdErr
03:55:02,046   INFO ScenarioRunSubCommand:52 - Created output directory: C:\Users\aganb\Desktop\MLCrowd\HW3\ex_5\outputs\alpha_3.900000000000002
03:55:02,378 STDOUT STDOUTERR:22 - Topography Warning:
   A source and a target element overlap in scenario. 
   A source and a target element overlap in scenario. 

03:55:02,425   INFO ScenarioRun:124 - Initializing scenario. Start of scenario 'Bottleneck bifurcation'...
03:55:02,425   INFO ScenarioRun:126 - StartIt Bottleneck bifurcation
03:55:02,425   INFO ScenarioRun:105 - scenario context initialized.
03:55:02,441   INFO VadereConfig:70 - Use config file from path C:\Users\aganb\.config\vadere.conf
03:55:02,770   INFO PotentialFieldDistancesBruteForce:47 - initialize floor field (PotentialFieldDistancesBruteForce)
03:55:02,910   INFO PotentialFieldDistancesBruteForce:82 - floor field initialization time:140[ms]
03:55:02,926   INFO Topography:351 - Set PedestrianIdCount to start value: 1
03:55:03,004   INFO EikonalSolverDefaultProvider:23 - floor field initialization time:62[ms]
03:55:03,082   INFO EikonalSolverDefaultProvider:23 - floor field initialization time:62[ms]
03:55:27,009   INFO Simulation:332 - Finished writing all output files
03:55:27,009   INFO ScenarioRun:177 - Simulation of scenario Bottleneck bifurcation finished.
03:55:27,982   INFO STDOUTERR:15 - Redirect StdOut and StdErr
03:55:27,982   INFO ScenarioRunSubCommand:52 - Created output directory: C:\Users\aganb\Desktop\MLCrowd\HW3\ex_5\outputs\alpha_3.8000000000000025
03:55:28,383 STDOUT STDOUTERR:22 - Topography Warning:
   A source and a target element overlap in scenario. 
   A source and a target element overlap in scenario. 

03:55:28,430   INFO ScenarioRun:124 - Initializing scenario. Start of scenario 'Bottleneck bifurcation'...
03:55:28,430   INFO ScenarioRun:126 - StartIt Bottleneck bifurcation
03:55:28,430   INFO ScenarioRun:105 - scenario context initialized.
03:55:28,446   INFO VadereConfig:70 - Use config file from path C:\Users\aganb\.config\vadere.conf
03:55:28,728   INFO PotentialFieldDistancesBruteForce:47 - initialize floor field (PotentialFieldDistancesBruteForce)
03:55:28,884   INFO PotentialFieldDistancesBruteForce:82 - floor field initialization time:141[ms]
03:55:28,884   INFO Topography:351 - Set PedestrianIdCount to start value: 1
03:55:28,962   INFO EikonalSolverDefaultProvider:23 - floor field initialization time:62[ms]
03:55:29,025   INFO EikonalSolverDefaultProvider:23 - floor field initialization time:63[ms]
03:55:52,114   INFO Simulation:332 - Finished writing all output files
03:55:52,114   INFO ScenarioRun:177 - Simulation of scenario Bottleneck bifurcation finished.
03:55:53,130   INFO STDOUTERR:15 - Redirect StdOut and StdErr
03:55:53,146   INFO ScenarioRunSubCommand:52 - Created output directory: C:\Users\aganb\Desktop\MLCrowd\HW3\ex_5\outputs\alpha_3.700000000000003
03:55:53,554 STDOUT STDOUTERR:22 - Topography Warning:
   A source and a target element overlap in scenario. 
   A source and a target element overlap in scenario. 

03:55:53,602   INFO ScenarioRun:124 - Initializing scenario. Start of scenario 'Bottleneck bifurcation'...
03:55:53,602   INFO ScenarioRun:126 - StartIt Bottleneck bifurcation
03:55:53,602   INFO ScenarioRun:105 - scenario context initialized.
03:55:53,618   INFO VadereConfig:70 - Use config file from path C:\Users\aganb\.config\vadere.conf
03:55:53,914   INFO PotentialFieldDistancesBruteForce:47 - initialize floor field (PotentialFieldDistancesBruteForce)
03:55:54,039   INFO PotentialFieldDistancesBruteForce:82 - floor field initialization time:125[ms]
03:55:54,039   INFO Topography:351 - Set PedestrianIdCount to start value: 1
03:55:54,102   INFO EikonalSolverDefaultProvider:23 - floor field initialization time:47[ms]
03:55:54,149   INFO EikonalSolverDefaultProvider:23 - floor field initialization time:47[ms]
03:56:19,411   INFO Simulation:332 - Finished writing all output files
03:56:19,411   INFO ScenarioRun:177 - Simulation of scenario Bottleneck bifurcation finished.
03:56:20,259   INFO STDOUTERR:15 - Redirect StdOut and StdErr
03:56:20,259   INFO ScenarioRunSubCommand:52 - Created output directory: C:\Users\aganb\Desktop\MLCrowd\HW3\ex_5\outputs\alpha_3.600000000000003
03:56:20,637 STDOUT STDOUTERR:22 - Topography Warning:
   A source and a target element overlap in scenario. 
   A source and a target element overlap in scenario. 

03:56:20,684   INFO ScenarioRun:124 - Initializing scenario. Start of scenario 'Bottleneck bifurcation'...
03:56:20,684   INFO ScenarioRun:126 - StartIt Bottleneck bifurcation
03:56:20,684   INFO ScenarioRun:105 - scenario context initialized.
03:56:20,700   INFO VadereConfig:70 - Use config file from path C:\Users\aganb\.config\vadere.conf
03:56:21,000   INFO PotentialFieldDistancesBruteForce:47 - initialize floor field (PotentialFieldDistancesBruteForce)
03:56:21,141   INFO PotentialFieldDistancesBruteForce:82 - floor field initialization time:141[ms]
03:56:21,141   INFO Topography:351 - Set PedestrianIdCount to start value: 1
03:56:21,220   INFO EikonalSolverDefaultProvider:23 - floor field initialization time:64[ms]
03:56:21,284   INFO EikonalSolverDefaultProvider:23 - floor field initialization time:47[ms]
03:56:46,531   INFO Simulation:332 - Finished writing all output files
03:56:46,531   INFO ScenarioRun:177 - Simulation of scenario Bottleneck bifurcation finished.
03:56:47,704   INFO STDOUTERR:15 - Redirect StdOut and StdErr
03:56:47,704   INFO ScenarioRunSubCommand:52 - Created output directory: C:\Users\aganb\Desktop\MLCrowd\HW3\ex_5\outputs\alpha_3.5000000000000036
03:56:48,143 STDOUT STDOUTERR:22 - Topography Warning:
   A source and a target element overlap in scenario. 
   A source and a target element overlap in scenario. 

03:56:48,189   INFO ScenarioRun:124 - Initializing scenario. Start of scenario 'Bottleneck bifurcation'...
03:56:48,189   INFO ScenarioRun:126 - StartIt Bottleneck bifurcation
03:56:48,189   INFO ScenarioRun:105 - scenario context initialized.
03:56:48,205   INFO VadereConfig:70 - Use config file from path C:\Users\aganb\.config\vadere.conf
03:56:48,596   INFO PotentialFieldDistancesBruteForce:47 - initialize floor field (PotentialFieldDistancesBruteForce)
03:56:48,752   INFO PotentialFieldDistancesBruteForce:82 - floor field initialization time:156[ms]
03:56:48,752   INFO Topography:351 - Set PedestrianIdCount to start value: 1
03:56:48,847   INFO EikonalSolverDefaultProvider:23 - floor field initialization time:80[ms]
03:56:48,941   INFO EikonalSolverDefaultProvider:23 - floor field initialization time:78[ms]
03:57:17,699   INFO Simulation:332 - Finished writing all output files
03:57:17,699   INFO ScenarioRun:177 - Simulation of scenario Bottleneck bifurcation finished.
03:57:18,549   INFO STDOUTERR:15 - Redirect StdOut and StdErr
03:57:18,549   INFO ScenarioRunSubCommand:52 - Created output directory: C:\Users\aganb\Desktop\MLCrowd\HW3\ex_5\outputs\alpha_3.400000000000004
03:57:18,928 STDOUT STDOUTERR:22 - Topography Warning:
   A source and a target element overlap in scenario. 
   A source and a target element overlap in scenario. 

03:57:18,960   INFO ScenarioRun:124 - Initializing scenario. Start of scenario 'Bottleneck bifurcation'...
03:57:18,960   INFO ScenarioRun:126 - StartIt Bottleneck bifurcation
03:57:18,960   INFO ScenarioRun:105 - scenario context initialized.
03:57:18,975   INFO VadereConfig:70 - Use config file from path C:\Users\aganb\.config\vadere.conf
03:57:19,242   INFO PotentialFieldDistancesBruteForce:47 - initialize floor field (PotentialFieldDistancesBruteForce)
03:57:19,351   INFO PotentialFieldDistancesBruteForce:82 - floor field initialization time:94[ms]
03:57:19,351   INFO Topography:351 - Set PedestrianIdCount to start value: 1
03:57:19,414   INFO EikonalSolverDefaultProvider:23 - floor field initialization time:47[ms]
03:57:19,461   INFO EikonalSolverDefaultProvider:23 - floor field initialization time:47[ms]
03:57:44,526   INFO Simulation:332 - Finished writing all output files
03:57:44,526   INFO ScenarioRun:177 - Simulation of scenario Bottleneck bifurcation finished.
03:57:45,347   INFO STDOUTERR:15 - Redirect StdOut and StdErr
03:57:45,350   INFO ScenarioRunSubCommand:52 - Created output directory: C:\Users\aganb\Desktop\MLCrowd\HW3\ex_5\outputs\alpha_3.3000000000000043
03:57:45,694 STDOUT STDOUTERR:22 - Topography Warning:
   A source and a target element overlap in scenario. 
   A source and a target element overlap in scenario. 

03:57:45,724   INFO ScenarioRun:124 - Initializing scenario. Start of scenario 'Bottleneck bifurcation'...
03:57:45,725   INFO ScenarioRun:126 - StartIt Bottleneck bifurcation
03:57:45,727   INFO ScenarioRun:105 - scenario context initialized.
03:57:45,740   INFO VadereConfig:70 - Use config file from path C:\Users\aganb\.config\vadere.conf
03:57:46,001   INFO PotentialFieldDistancesBruteForce:47 - initialize floor field (PotentialFieldDistancesBruteForce)
03:57:46,106   INFO PotentialFieldDistancesBruteForce:82 - floor field initialization time:101[ms]
03:57:46,108   INFO Topography:351 - Set PedestrianIdCount to start value: 1
03:57:46,179   INFO EikonalSolverDefaultProvider:23 - floor field initialization time:59[ms]
03:57:46,212   INFO EikonalSolverDefaultProvider:23 - floor field initialization time:29[ms]
03:58:13,471   INFO Simulation:332 - Finished writing all output files
03:58:13,472   INFO ScenarioRun:177 - Simulation of scenario Bottleneck bifurcation finished.
03:58:14,830   INFO STDOUTERR:15 - Redirect StdOut and StdErr
03:58:14,835   INFO ScenarioRunSubCommand:52 - Created output directory: C:\Users\aganb\Desktop\MLCrowd\HW3\ex_5\outputs\alpha_3.2000000000000046
03:58:15,270 STDOUT STDOUTERR:22 - Topography Warning:
   A source and a target element overlap in scenario. 
   A source and a target element overlap in scenario. 

03:58:15,313   INFO ScenarioRun:124 - Initializing scenario. Start of scenario 'Bottleneck bifurcation'...
03:58:15,314   INFO ScenarioRun:126 - StartIt Bottleneck bifurcation
03:58:15,317   INFO ScenarioRun:105 - scenario context initialized.
03:58:15,336   INFO VadereConfig:70 - Use config file from path C:\Users\aganb\.config\vadere.conf
03:58:15,639   INFO PotentialFieldDistancesBruteForce:47 - initialize floor field (PotentialFieldDistancesBruteForce)
03:58:15,749   INFO PotentialFieldDistancesBruteForce:82 - floor field initialization time:104[ms]
03:58:15,751   INFO Topography:351 - Set PedestrianIdCount to start value: 1
03:58:15,835   INFO EikonalSolverDefaultProvider:23 - floor field initialization time:70[ms]
03:58:15,895   INFO EikonalSolverDefaultProvider:23 - floor field initialization time:53[ms]
03:58:49,288   INFO Simulation:332 - Finished writing all output files
03:58:49,288   INFO ScenarioRun:177 - Simulation of scenario Bottleneck bifurcation finished.
03:58:50,153   INFO STDOUTERR:15 - Redirect StdOut and StdErr
03:58:50,158   INFO ScenarioRunSubCommand:52 - Created output directory: C:\Users\aganb\Desktop\MLCrowd\HW3\ex_5\outputs\alpha_3.100000000000005
03:58:50,581 STDOUT STDOUTERR:22 - Topography Warning:
   A source and a target element overlap in scenario. 
   A source and a target element overlap in scenario. 

03:58:50,635   INFO ScenarioRun:124 - Initializing scenario. Start of scenario 'Bottleneck bifurcation'...
03:58:50,637   INFO ScenarioRun:126 - StartIt Bottleneck bifurcation
03:58:50,643   INFO ScenarioRun:105 - scenario context initialized.
03:58:50,662   INFO VadereConfig:70 - Use config file from path C:\Users\aganb\.config\vadere.conf
03:58:51,032   INFO PotentialFieldDistancesBruteForce:47 - initialize floor field (PotentialFieldDistancesBruteForce)
03:58:51,183   INFO PotentialFieldDistancesBruteForce:82 - floor field initialization time:145[ms]
03:58:51,186   INFO Topography:351 - Set PedestrianIdCount to start value: 1
03:58:51,273   INFO EikonalSolverDefaultProvider:23 - floor field initialization time:60[ms]
03:58:51,314   INFO EikonalSolverDefaultProvider:23 - floor field initialization time:36[ms]
03:59:19,237   INFO Simulation:332 - Finished writing all output files
03:59:19,237   INFO ScenarioRun:177 - Simulation of scenario Bottleneck bifurcation finished.
03:59:20,065   INFO STDOUTERR:15 - Redirect StdOut and StdErr
03:59:20,065   INFO ScenarioRunSubCommand:52 - Created output directory: C:\Users\aganb\Desktop\MLCrowd\HW3\ex_5\outputs\alpha_3.0000000000000053
03:59:20,394 STDOUT STDOUTERR:22 - Topography Warning:
   A source and a target element overlap in scenario. 
   A source and a target element overlap in scenario. 

03:59:20,427   INFO ScenarioRun:124 - Initializing scenario. Start of scenario 'Bottleneck bifurcation'...
03:59:20,427   INFO ScenarioRun:126 - StartIt Bottleneck bifurcation
03:59:20,427   INFO ScenarioRun:105 - scenario context initialized.
03:59:20,442   INFO VadereConfig:70 - Use config file from path C:\Users\aganb\.config\vadere.conf
03:59:20,676   INFO PotentialFieldDistancesBruteForce:47 - initialize floor field (PotentialFieldDistancesBruteForce)
03:59:20,770   INFO PotentialFieldDistancesBruteForce:82 - floor field initialization time:94[ms]
03:59:20,770   INFO Topography:351 - Set PedestrianIdCount to start value: 1
03:59:20,833   INFO EikonalSolverDefaultProvider:23 - floor field initialization time:47[ms]
03:59:20,864   INFO EikonalSolverDefaultProvider:23 - floor field initialization time:31[ms]
03:59:48,546   INFO Simulation:332 - Finished writing all output files
03:59:48,546   INFO ScenarioRun:177 - Simulation of scenario Bottleneck bifurcation finished.
03:59:49,488   INFO STDOUTERR:15 - Redirect StdOut and StdErr
03:59:49,494   INFO ScenarioRunSubCommand:52 - Created output directory: C:\Users\aganb\Desktop\MLCrowd\HW3\ex_5\outputs\alpha_2.9000000000000057
03:59:49,810 STDOUT STDOUTERR:22 - Topography Warning:
   A source and a target element overlap in scenario. 
   A source and a target element overlap in scenario. 

03:59:49,841   INFO ScenarioRun:124 - Initializing scenario. Start of scenario 'Bottleneck bifurcation'...
03:59:49,841   INFO ScenarioRun:126 - StartIt Bottleneck bifurcation
03:59:49,841   INFO ScenarioRun:105 - scenario context initialized.
03:59:49,857   INFO VadereConfig:70 - Use config file from path C:\Users\aganb\.config\vadere.conf
03:59:50,095   INFO PotentialFieldDistancesBruteForce:47 - initialize floor field (PotentialFieldDistancesBruteForce)
03:59:50,211   INFO PotentialFieldDistancesBruteForce:82 - floor field initialization time:116[ms]
03:59:50,211   INFO Topography:351 - Set PedestrianIdCount to start value: 1
03:59:50,273   INFO EikonalSolverDefaultProvider:23 - floor field initialization time:47[ms]
03:59:50,311   INFO EikonalSolverDefaultProvider:23 - floor field initialization time:22[ms]
04:00:19,115   INFO Simulation:332 - Finished writing all output files
04:00:19,115   INFO ScenarioRun:177 - Simulation of scenario Bottleneck bifurcation finished.
04:00:19,943   INFO STDOUTERR:15 - Redirect StdOut and StdErr
04:00:19,952   INFO ScenarioRunSubCommand:52 - Created output directory: C:\Users\aganb\Desktop\MLCrowd\HW3\ex_5\outputs\alpha_2.800000000000006
04:00:20,296 STDOUT STDOUTERR:22 - Topography Warning:
   A source and a target element overlap in scenario. 
   A source and a target element overlap in scenario. 

04:00:20,328   INFO ScenarioRun:124 - Initializing scenario. Start of scenario 'Bottleneck bifurcation'...
04:00:20,328   INFO ScenarioRun:126 - StartIt Bottleneck bifurcation
04:00:20,343   INFO ScenarioRun:105 - scenario context initialized.
04:00:20,359   INFO VadereConfig:70 - Use config file from path C:\Users\aganb\.config\vadere.conf
04:00:20,609   INFO PotentialFieldDistancesBruteForce:47 - initialize floor field (PotentialFieldDistancesBruteForce)
04:00:20,724   INFO PotentialFieldDistancesBruteForce:82 - floor field initialization time:99[ms]
04:00:20,724   INFO Topography:351 - Set PedestrianIdCount to start value: 1
04:00:20,790   INFO EikonalSolverDefaultProvider:23 - floor field initialization time:62[ms]
04:00:20,847   INFO EikonalSolverDefaultProvider:23 - floor field initialization time:41[ms]
04:00:54,427   INFO Simulation:332 - Finished writing all output files
04:00:54,427   INFO ScenarioRun:177 - Simulation of scenario Bottleneck bifurcation finished.
04:00:55,260   INFO STDOUTERR:15 - Redirect StdOut and StdErr
04:00:55,260   INFO ScenarioRunSubCommand:52 - Created output directory: C:\Users\aganb\Desktop\MLCrowd\HW3\ex_5\outputs\alpha_2.7000000000000064
04:00:55,590 STDOUT STDOUTERR:22 - Topography Warning:
   A source and a target element overlap in scenario. 
   A source and a target element overlap in scenario. 

04:00:55,605   INFO ScenarioRun:124 - Initializing scenario. Start of scenario 'Bottleneck bifurcation'...
04:00:55,605   INFO ScenarioRun:126 - StartIt Bottleneck bifurcation
04:00:55,605   INFO ScenarioRun:105 - scenario context initialized.
04:00:55,621   INFO VadereConfig:70 - Use config file from path C:\Users\aganb\.config\vadere.conf
04:00:55,872   INFO PotentialFieldDistancesBruteForce:47 - initialize floor field (PotentialFieldDistancesBruteForce)
04:00:55,966   INFO PotentialFieldDistancesBruteForce:82 - floor field initialization time:94[ms]
04:00:55,966   INFO Topography:351 - Set PedestrianIdCount to start value: 1
04:00:56,028   INFO EikonalSolverDefaultProvider:23 - floor field initialization time:47[ms]
04:00:56,075   INFO EikonalSolverDefaultProvider:23 - floor field initialization time:47[ms]
04:01:33,973   INFO Simulation:332 - Finished writing all output files
04:01:33,973   INFO ScenarioRun:177 - Simulation of scenario Bottleneck bifurcation finished.
04:01:34,789   INFO STDOUTERR:15 - Redirect StdOut and StdErr
04:01:34,789   INFO ScenarioRunSubCommand:52 - Created output directory: C:\Users\aganb\Desktop\MLCrowd\HW3\ex_5\outputs\alpha_2.6000000000000068
04:01:35,105 STDOUT STDOUTERR:22 - Topography Warning:
   A source and a target element overlap in scenario. 
   A source and a target element overlap in scenario. 

04:01:35,143   INFO ScenarioRun:124 - Initializing scenario. Start of scenario 'Bottleneck bifurcation'...
04:01:35,143   INFO ScenarioRun:126 - StartIt Bottleneck bifurcation
04:01:35,143   INFO ScenarioRun:105 - scenario context initialized.
04:01:35,158   INFO VadereConfig:70 - Use config file from path C:\Users\aganb\.config\vadere.conf
04:01:35,390   INFO PotentialFieldDistancesBruteForce:47 - initialize floor field (PotentialFieldDistancesBruteForce)
04:01:35,490   INFO PotentialFieldDistancesBruteForce:82 - floor field initialization time:85[ms]
04:01:35,490   INFO Topography:351 - Set PedestrianIdCount to start value: 1
04:01:35,575   INFO EikonalSolverDefaultProvider:23 - floor field initialization time:69[ms]
04:01:35,606   INFO EikonalSolverDefaultProvider:23 - floor field initialization time:31[ms]
04:02:30,205   INFO Simulation:332 - Finished writing all output files
04:02:30,205   INFO ScenarioRun:177 - Simulation of scenario Bottleneck bifurcation finished.
04:02:31,023   INFO STDOUTERR:15 - Redirect StdOut and StdErr
04:02:31,023   INFO ScenarioRunSubCommand:52 - Created output directory: C:\Users\aganb\Desktop\MLCrowd\HW3\ex_5\outputs\alpha_2.500000000000007
04:02:31,339 STDOUT STDOUTERR:22 - Topography Warning:
   A source and a target element overlap in scenario. 
   A source and a target element overlap in scenario. 

04:02:31,370   INFO ScenarioRun:124 - Initializing scenario. Start of scenario 'Bottleneck bifurcation'...
04:02:31,370   INFO ScenarioRun:126 - StartIt Bottleneck bifurcation
04:02:31,370   INFO ScenarioRun:105 - scenario context initialized.
04:02:31,370   INFO VadereConfig:70 - Use config file from path C:\Users\aganb\.config\vadere.conf
04:02:31,608   INFO PotentialFieldDistancesBruteForce:47 - initialize floor field (PotentialFieldDistancesBruteForce)
04:02:31,702   INFO PotentialFieldDistancesBruteForce:82 - floor field initialization time:94[ms]
04:02:31,702   INFO Topography:351 - Set PedestrianIdCount to start value: 1
04:02:31,786   INFO EikonalSolverDefaultProvider:23 - floor field initialization time:78[ms]
04:02:31,821   INFO EikonalSolverDefaultProvider:23 - floor field initialization time:35[ms]
04:03:32,153   INFO Simulation:332 - Finished writing all output files
04:03:32,153   INFO ScenarioRun:177 - Simulation of scenario Bottleneck bifurcation finished.
04:03:33,174   INFO STDOUTERR:15 - Redirect StdOut and StdErr
04:03:33,174   INFO ScenarioRunSubCommand:52 - Created output directory: C:\Users\aganb\Desktop\MLCrowd\HW3\ex_5\outputs\alpha_2.4000000000000075
04:03:33,629 STDOUT STDOUTERR:22 - Topography Warning:
   A source and a target element overlap in scenario. 
   A source and a target element overlap in scenario. 

04:03:33,661   INFO ScenarioRun:124 - Initializing scenario. Start of scenario 'Bottleneck bifurcation'...
04:03:33,661   INFO ScenarioRun:126 - StartIt Bottleneck bifurcation
04:03:33,661   INFO ScenarioRun:105 - scenario context initialized.
04:03:33,676   INFO VadereConfig:70 - Use config file from path C:\Users\aganb\.config\vadere.conf
04:03:33,959   INFO PotentialFieldDistancesBruteForce:47 - initialize floor field (PotentialFieldDistancesBruteForce)
04:03:34,099   INFO PotentialFieldDistancesBruteForce:82 - floor field initialization time:140[ms]
04:03:34,099   INFO Topography:351 - Set PedestrianIdCount to start value: 1
04:03:34,193   INFO EikonalSolverDefaultProvider:23 - floor field initialization time:78[ms]
04:03:34,255   INFO EikonalSolverDefaultProvider:23 - floor field initialization time:62[ms]
04:04:32,659   INFO Simulation:332 - Finished writing all output files
04:04:32,659   INFO ScenarioRun:177 - Simulation of scenario Bottleneck bifurcation finished.
04:04:33,488   INFO STDOUTERR:15 - Redirect StdOut and StdErr
04:04:33,488   INFO ScenarioRunSubCommand:52 - Created output directory: C:\Users\aganb\Desktop\MLCrowd\HW3\ex_5\outputs\alpha_2.300000000000008
04:04:33,818 STDOUT STDOUTERR:22 - Topography Warning:
   A source and a target element overlap in scenario. 
   A source and a target element overlap in scenario. 

04:04:33,833   INFO ScenarioRun:124 - Initializing scenario. Start of scenario 'Bottleneck bifurcation'...
04:04:33,849   INFO ScenarioRun:126 - StartIt Bottleneck bifurcation
04:04:33,849   INFO ScenarioRun:105 - scenario context initialized.
04:04:33,849   INFO VadereConfig:70 - Use config file from path C:\Users\aganb\.config\vadere.conf
04:04:34,084   INFO PotentialFieldDistancesBruteForce:47 - initialize floor field (PotentialFieldDistancesBruteForce)
04:04:34,194   INFO PotentialFieldDistancesBruteForce:82 - floor field initialization time:94[ms]
04:04:34,194   INFO Topography:351 - Set PedestrianIdCount to start value: 1
04:04:34,256   INFO EikonalSolverDefaultProvider:23 - floor field initialization time:62[ms]
04:04:34,303   INFO EikonalSolverDefaultProvider:23 - floor field initialization time:31[ms]
04:05:30,309   INFO Simulation:332 - Finished writing all output files
04:05:30,309   INFO ScenarioRun:177 - Simulation of scenario Bottleneck bifurcation finished.
04:05:31,126   INFO STDOUTERR:15 - Redirect StdOut and StdErr
04:05:31,126   INFO ScenarioRunSubCommand:52 - Created output directory: C:\Users\aganb\Desktop\MLCrowd\HW3\ex_5\outputs\alpha_2.200000000000008
04:05:31,454 STDOUT STDOUTERR:22 - Topography Warning:
   A source and a target element overlap in scenario. 
   A source and a target element overlap in scenario. 

04:05:31,470   INFO ScenarioRun:124 - Initializing scenario. Start of scenario 'Bottleneck bifurcation'...
04:05:31,470   INFO ScenarioRun:126 - StartIt Bottleneck bifurcation
04:05:31,486   INFO ScenarioRun:105 - scenario context initialized.
04:05:31,486   INFO VadereConfig:70 - Use config file from path C:\Users\aganb\.config\vadere.conf
04:05:31,751   INFO PotentialFieldDistancesBruteForce:47 - initialize floor field (PotentialFieldDistancesBruteForce)
04:05:31,860   INFO PotentialFieldDistancesBruteForce:82 - floor field initialization time:94[ms]
04:05:31,866   INFO Topography:351 - Set PedestrianIdCount to start value: 1
04:05:31,945   INFO EikonalSolverDefaultProvider:23 - floor field initialization time:62[ms]
04:05:31,992   INFO EikonalSolverDefaultProvider:23 - floor field initialization time:47[ms]
04:06:26,860   INFO Simulation:332 - Finished writing all output files
04:06:26,860   INFO ScenarioRun:177 - Simulation of scenario Bottleneck bifurcation finished.
04:06:27,720   INFO STDOUTERR:15 - Redirect StdOut and StdErr
04:06:27,720   INFO ScenarioRunSubCommand:52 - Created output directory: C:\Users\aganb\Desktop\MLCrowd\HW3\ex_5\outputs\alpha_2.1000000000000085
04:06:28,033 STDOUT STDOUTERR:22 - Topography Warning:
   A source and a target element overlap in scenario. 
   A source and a target element overlap in scenario. 

04:06:28,064   INFO ScenarioRun:124 - Initializing scenario. Start of scenario 'Bottleneck bifurcation'...
04:06:28,064   INFO ScenarioRun:126 - StartIt Bottleneck bifurcation
04:06:28,064   INFO ScenarioRun:105 - scenario context initialized.
04:06:28,064   INFO VadereConfig:70 - Use config file from path C:\Users\aganb\.config\vadere.conf
04:06:28,364   INFO PotentialFieldDistancesBruteForce:47 - initialize floor field (PotentialFieldDistancesBruteForce)
04:06:28,505   INFO PotentialFieldDistancesBruteForce:82 - floor field initialization time:141[ms]
04:06:28,505   INFO Topography:351 - Set PedestrianIdCount to start value: 1
04:06:28,583   INFO EikonalSolverDefaultProvider:23 - floor field initialization time:62[ms]
04:06:28,646   INFO EikonalSolverDefaultProvider:23 - floor field initialization time:63[ms]
04:07:17,044   INFO Simulation:332 - Finished writing all output files
04:07:17,044   INFO ScenarioRun:177 - Simulation of scenario Bottleneck bifurcation finished.
04:07:17,914   INFO STDOUTERR:15 - Redirect StdOut and StdErr
04:07:17,914   INFO ScenarioRunSubCommand:52 - Created output directory: C:\Users\aganb\Desktop\MLCrowd\HW3\ex_5\outputs\alpha_2.000000000000009
04:07:18,226 STDOUT STDOUTERR:22 - Topography Warning:
   A source and a target element overlap in scenario. 
   A source and a target element overlap in scenario. 

04:07:18,257   INFO ScenarioRun:124 - Initializing scenario. Start of scenario 'Bottleneck bifurcation'...
04:07:18,257   INFO ScenarioRun:126 - StartIt Bottleneck bifurcation
04:07:18,257   INFO ScenarioRun:105 - scenario context initialized.
04:07:18,273   INFO VadereConfig:70 - Use config file from path C:\Users\aganb\.config\vadere.conf
04:07:18,523   INFO PotentialFieldDistancesBruteForce:47 - initialize floor field (PotentialFieldDistancesBruteForce)
04:07:18,648   INFO PotentialFieldDistancesBruteForce:82 - floor field initialization time:110[ms]
04:07:18,648   INFO Topography:351 - Set PedestrianIdCount to start value: 1
04:07:18,727   INFO EikonalSolverDefaultProvider:23 - floor field initialization time:79[ms]
04:07:18,775   INFO EikonalSolverDefaultProvider:23 - floor field initialization time:48[ms]
04:08:19,721   INFO Simulation:332 - Finished writing all output files
04:08:19,721   INFO ScenarioRun:177 - Simulation of scenario Bottleneck bifurcation finished.
04:08:20,628   INFO STDOUTERR:15 - Redirect StdOut and StdErr
04:08:20,628   INFO ScenarioRunSubCommand:52 - Created output directory: C:\Users\aganb\Desktop\MLCrowd\HW3\ex_5\outputs\alpha_1.9000000000000092
04:08:20,950 STDOUT STDOUTERR:22 - Topography Warning:
   A source and a target element overlap in scenario. 
   A source and a target element overlap in scenario. 

04:08:20,982   INFO ScenarioRun:124 - Initializing scenario. Start of scenario 'Bottleneck bifurcation'...
04:08:20,982   INFO ScenarioRun:126 - StartIt Bottleneck bifurcation
04:08:20,982   INFO ScenarioRun:105 - scenario context initialized.
04:08:20,997   INFO VadereConfig:70 - Use config file from path C:\Users\aganb\.config\vadere.conf
04:08:21,264   INFO PotentialFieldDistancesBruteForce:47 - initialize floor field (PotentialFieldDistancesBruteForce)
04:08:21,405   INFO PotentialFieldDistancesBruteForce:82 - floor field initialization time:125[ms]
04:08:21,405   INFO Topography:351 - Set PedestrianIdCount to start value: 1
04:08:21,468   INFO EikonalSolverDefaultProvider:23 - floor field initialization time:47[ms]
04:08:21,514   INFO EikonalSolverDefaultProvider:23 - floor field initialization time:46[ms]
04:09:22,633   INFO Simulation:332 - Finished writing all output files
04:09:22,633   INFO ScenarioRun:177 - Simulation of scenario Bottleneck bifurcation finished.
04:09:23,438   INFO STDOUTERR:15 - Redirect StdOut and StdErr
04:09:23,438   INFO ScenarioRunSubCommand:52 - Created output directory: C:\Users\aganb\Desktop\MLCrowd\HW3\ex_5\outputs\alpha_1.8000000000000096
04:09:23,766 STDOUT STDOUTERR:22 - Topography Warning:
   A source and a target element overlap in scenario. 
   A source and a target element overlap in scenario. 

04:09:23,797   INFO ScenarioRun:124 - Initializing scenario. Start of scenario 'Bottleneck bifurcation'...
04:09:23,797   INFO ScenarioRun:126 - StartIt Bottleneck bifurcation
04:09:23,797   INFO ScenarioRun:105 - scenario context initialized.
04:09:23,813   INFO VadereConfig:70 - Use config file from path C:\Users\aganb\.config\vadere.conf
04:09:24,047   INFO PotentialFieldDistancesBruteForce:47 - initialize floor field (PotentialFieldDistancesBruteForce)
04:09:24,205   INFO PotentialFieldDistancesBruteForce:82 - floor field initialization time:142[ms]
04:09:24,205   INFO Topography:351 - Set PedestrianIdCount to start value: 1
04:09:24,283   INFO EikonalSolverDefaultProvider:23 - floor field initialization time:62[ms]
04:09:24,347   INFO EikonalSolverDefaultProvider:23 - floor field initialization time:64[ms]
04:10:11,797   INFO Simulation:332 - Finished writing all output files
04:10:11,797   INFO ScenarioRun:177 - Simulation of scenario Bottleneck bifurcation finished.
04:10:12,678   INFO STDOUTERR:15 - Redirect StdOut and StdErr
04:10:12,680   INFO ScenarioRunSubCommand:52 - Created output directory: C:\Users\aganb\Desktop\MLCrowd\HW3\ex_5\outputs\alpha_1.70000000000001
04:10:12,992 STDOUT STDOUTERR:22 - Topography Warning:
   A source and a target element overlap in scenario. 
   A source and a target element overlap in scenario. 

04:10:13,023   INFO ScenarioRun:124 - Initializing scenario. Start of scenario 'Bottleneck bifurcation'...
04:10:13,023   INFO ScenarioRun:126 - StartIt Bottleneck bifurcation
04:10:13,023   INFO ScenarioRun:105 - scenario context initialized.
04:10:13,039   INFO VadereConfig:70 - Use config file from path C:\Users\aganb\.config\vadere.conf
04:10:13,323   INFO PotentialFieldDistancesBruteForce:47 - initialize floor field (PotentialFieldDistancesBruteForce)
04:10:13,464   INFO PotentialFieldDistancesBruteForce:82 - floor field initialization time:126[ms]
04:10:13,464   INFO Topography:351 - Set PedestrianIdCount to start value: 1
04:10:13,529   INFO EikonalSolverDefaultProvider:23 - floor field initialization time:49[ms]
04:10:13,560   INFO EikonalSolverDefaultProvider:23 - floor field initialization time:31[ms]
04:11:13,851   INFO Simulation:332 - Finished writing all output files
04:11:13,851   INFO ScenarioRun:177 - Simulation of scenario Bottleneck bifurcation finished.
04:11:14,662   INFO STDOUTERR:15 - Redirect StdOut and StdErr
04:11:14,678   INFO ScenarioRunSubCommand:52 - Created output directory: C:\Users\aganb\Desktop\MLCrowd\HW3\ex_5\outputs\alpha_1.6000000000000103
04:11:14,990 STDOUT STDOUTERR:22 - Topography Warning:
   A source and a target element overlap in scenario. 
   A source and a target element overlap in scenario. 

04:11:15,021   INFO ScenarioRun:124 - Initializing scenario. Start of scenario 'Bottleneck bifurcation'...
04:11:15,021   INFO ScenarioRun:126 - StartIt Bottleneck bifurcation
04:11:15,021   INFO ScenarioRun:105 - scenario context initialized.
04:11:15,037   INFO VadereConfig:70 - Use config file from path C:\Users\aganb\.config\vadere.conf
04:11:15,271   INFO PotentialFieldDistancesBruteForce:47 - initialize floor field (PotentialFieldDistancesBruteForce)
04:11:15,396   INFO PotentialFieldDistancesBruteForce:82 - floor field initialization time:125[ms]
04:11:15,396   INFO Topography:351 - Set PedestrianIdCount to start value: 1
04:11:15,459   INFO EikonalSolverDefaultProvider:23 - floor field initialization time:47[ms]
04:11:15,491   INFO EikonalSolverDefaultProvider:23 - floor field initialization time:32[ms]
04:12:16,494   INFO Simulation:332 - Finished writing all output files
04:12:16,494   INFO ScenarioRun:177 - Simulation of scenario Bottleneck bifurcation finished.
04:12:34,150   INFO STDOUTERR:15 - Redirect StdOut and StdErr
04:12:34,150   INFO ScenarioRunSubCommand:52 - Created output directory: C:\Users\aganb\Desktop\MLCrowd\HW3\ex_5\outputs\alpha_9.5
04:12:34,528   INFO ScenarioRun:124 - Initializing scenario. Start of scenario 'part_2'...
04:12:34,528   INFO ScenarioRun:126 - StartIt part_2
04:12:34,544   INFO ScenarioRun:105 - scenario context initialized.
04:12:34,544   INFO VadereConfig:70 - Use config file from path C:\Users\aganb\.config\vadere.conf
04:12:34,799   INFO PotentialFieldDistancesBruteForce:47 - initialize floor field (PotentialFieldDistancesBruteForce)
04:12:35,146   INFO PotentialFieldDistancesBruteForce:82 - floor field initialization time:332[ms]
04:12:35,146   INFO Topography:351 - Set PedestrianIdCount to start value: 1
04:12:35,349   INFO EikonalSolverDefaultProvider:23 - floor field initialization time:171[ms]
04:15:01,754   INFO Simulation:332 - Finished writing all output files
04:15:01,754   INFO ScenarioRun:177 - Simulation of scenario part_2 finished.
04:15:02,597   INFO STDOUTERR:15 - Redirect StdOut and StdErr
04:15:02,612   INFO ScenarioRunSubCommand:52 - Created output directory: C:\Users\aganb\Desktop\MLCrowd\HW3\ex_5\outputs\alpha_9.7
04:15:02,925   INFO ScenarioRun:124 - Initializing scenario. Start of scenario 'part_2'...
04:15:02,925   INFO ScenarioRun:126 - StartIt part_2
04:15:02,925   INFO ScenarioRun:105 - scenario context initialized.
04:15:02,941   INFO VadereConfig:70 - Use config file from path C:\Users\aganb\.config\vadere.conf
04:15:03,160   INFO PotentialFieldDistancesBruteForce:47 - initialize floor field (PotentialFieldDistancesBruteForce)
04:15:03,457   INFO PotentialFieldDistancesBruteForce:82 - floor field initialization time:281[ms]
04:15:03,457   INFO Topography:351 - Set PedestrianIdCount to start value: 1
04:15:03,614   INFO EikonalSolverDefaultProvider:23 - floor field initialization time:142[ms]
04:16:55,772   INFO Simulation:332 - Finished writing all output files
04:16:55,772   INFO ScenarioRun:177 - Simulation of scenario part_2 finished.
04:16:56,673   INFO STDOUTERR:15 - Redirect StdOut and StdErr
04:16:56,673   INFO ScenarioRunSubCommand:52 - Created output directory: C:\Users\aganb\Desktop\MLCrowd\HW3\ex_5\outputs\alpha_9.899999999999999
04:16:57,016   INFO ScenarioRun:124 - Initializing scenario. Start of scenario 'part_2'...
04:16:57,016   INFO ScenarioRun:126 - StartIt part_2
04:16:57,016   INFO ScenarioRun:105 - scenario context initialized.
04:16:57,032   INFO VadereConfig:70 - Use config file from path C:\Users\aganb\.config\vadere.conf
04:16:57,251   INFO PotentialFieldDistancesBruteForce:47 - initialize floor field (PotentialFieldDistancesBruteForce)
04:16:57,547   INFO PotentialFieldDistancesBruteForce:82 - floor field initialization time:281[ms]
04:16:57,547   INFO Topography:351 - Set PedestrianIdCount to start value: 1
04:16:57,704   INFO EikonalSolverDefaultProvider:23 - floor field initialization time:125[ms]
04:19:27,241   INFO Simulation:332 - Finished writing all output files
04:19:27,241   INFO ScenarioRun:177 - Simulation of scenario part_2 finished.
04:19:28,137   INFO STDOUTERR:15 - Redirect StdOut and StdErr
04:19:28,137   INFO ScenarioRunSubCommand:52 - Created output directory: C:\Users\aganb\Desktop\MLCrowd\HW3\ex_5\outputs\alpha_10.099999999999998
04:19:28,465   INFO ScenarioRun:124 - Initializing scenario. Start of scenario 'part_2'...
04:19:28,481   INFO ScenarioRun:126 - StartIt part_2
04:19:28,481   INFO ScenarioRun:105 - scenario context initialized.
04:19:28,481   INFO VadereConfig:70 - Use config file from path C:\Users\aganb\.config\vadere.conf
04:19:28,709   INFO PotentialFieldDistancesBruteForce:47 - initialize floor field (PotentialFieldDistancesBruteForce)
04:19:28,976   INFO PotentialFieldDistancesBruteForce:82 - floor field initialization time:267[ms]
04:19:28,976   INFO Topography:351 - Set PedestrianIdCount to start value: 1
04:19:29,148   INFO EikonalSolverDefaultProvider:23 - floor field initialization time:125[ms]
04:19:31,888   INFO Simulation:332 - Finished writing all output files
04:19:31,888   INFO ScenarioRun:177 - Simulation of scenario part_2 finished.
04:19:32,847   INFO STDOUTERR:15 - Redirect StdOut and StdErr
04:19:32,847   INFO ScenarioRunSubCommand:52 - Created output directory: C:\Users\aganb\Desktop\MLCrowd\HW3\ex_5\outputs\alpha_10.299999999999997
04:19:33,185   INFO ScenarioRun:124 - Initializing scenario. Start of scenario 'part_2'...
04:19:33,185   INFO ScenarioRun:126 - StartIt part_2
04:19:33,185   INFO ScenarioRun:105 - scenario context initialized.
04:19:33,201   INFO VadereConfig:70 - Use config file from path C:\Users\aganb\.config\vadere.conf
04:19:33,454   INFO PotentialFieldDistancesBruteForce:47 - initialize floor field (PotentialFieldDistancesBruteForce)
04:19:33,782   INFO PotentialFieldDistancesBruteForce:82 - floor field initialization time:313[ms]
04:19:33,782   INFO Topography:351 - Set PedestrianIdCount to start value: 1
04:19:33,955   INFO EikonalSolverDefaultProvider:23 - floor field initialization time:157[ms]
04:19:36,780   INFO Simulation:332 - Finished writing all output files
04:19:36,780   INFO ScenarioRun:177 - Simulation of scenario part_2 finished.
04:19:37,839   INFO STDOUTERR:15 - Redirect StdOut and StdErr
04:19:37,848   INFO ScenarioRunSubCommand:52 - Created output directory: C:\Users\aganb\Desktop\MLCrowd\HW3\ex_5\outputs\alpha_10.499999999999996
04:19:38,161   INFO ScenarioRun:124 - Initializing scenario. Start of scenario 'part_2'...
04:19:38,161   INFO ScenarioRun:126 - StartIt part_2
04:19:38,161   INFO ScenarioRun:105 - scenario context initialized.
04:19:38,177   INFO VadereConfig:70 - Use config file from path C:\Users\aganb\.config\vadere.conf
04:19:38,385   INFO PotentialFieldDistancesBruteForce:47 - initialize floor field (PotentialFieldDistancesBruteForce)
04:19:38,667   INFO PotentialFieldDistancesBruteForce:82 - floor field initialization time:282[ms]
04:19:38,667   INFO Topography:351 - Set PedestrianIdCount to start value: 1
04:19:38,839   INFO EikonalSolverDefaultProvider:23 - floor field initialization time:141[ms]
04:19:41,835   INFO Simulation:332 - Finished writing all output files
04:19:41,835   INFO ScenarioRun:177 - Simulation of scenario part_2 finished.
04:19:42,941   INFO STDOUTERR:15 - Redirect StdOut and StdErr
04:19:42,950   INFO ScenarioRunSubCommand:52 - Created output directory: C:\Users\aganb\Desktop\MLCrowd\HW3\ex_5\outputs\alpha_10.699999999999996
04:19:43,264   INFO ScenarioRun:124 - Initializing scenario. Start of scenario 'part_2'...
04:19:43,264   INFO ScenarioRun:126 - StartIt part_2
04:19:43,279   INFO ScenarioRun:105 - scenario context initialized.
04:19:43,279   INFO VadereConfig:70 - Use config file from path C:\Users\aganb\.config\vadere.conf
04:19:43,519   INFO PotentialFieldDistancesBruteForce:47 - initialize floor field (PotentialFieldDistancesBruteForce)
04:19:43,801   INFO PotentialFieldDistancesBruteForce:82 - floor field initialization time:267[ms]
04:19:43,801   INFO Topography:351 - Set PedestrianIdCount to start value: 1
04:19:43,989   INFO EikonalSolverDefaultProvider:23 - floor field initialization time:172[ms]
04:19:46,931   INFO Simulation:332 - Finished writing all output files
04:19:46,931   INFO ScenarioRun:177 - Simulation of scenario part_2 finished.
04:19:47,827   INFO STDOUTERR:15 - Redirect StdOut and StdErr
04:19:47,827   INFO ScenarioRunSubCommand:52 - Created output directory: C:\Users\aganb\Desktop\MLCrowd\HW3\ex_5\outputs\alpha_10.899999999999995
04:19:48,186   INFO ScenarioRun:124 - Initializing scenario. Start of scenario 'part_2'...
04:19:48,186   INFO ScenarioRun:126 - StartIt part_2
04:19:48,186   INFO ScenarioRun:105 - scenario context initialized.
04:19:48,202   INFO VadereConfig:70 - Use config file from path C:\Users\aganb\.config\vadere.conf
04:19:48,471   INFO PotentialFieldDistancesBruteForce:47 - initialize floor field (PotentialFieldDistancesBruteForce)
04:19:48,894   INFO PotentialFieldDistancesBruteForce:82 - floor field initialization time:423[ms]
04:19:48,894   INFO Topography:351 - Set PedestrianIdCount to start value: 1
04:19:49,107   INFO EikonalSolverDefaultProvider:23 - floor field initialization time:166[ms]
04:19:52,516   INFO Simulation:332 - Finished writing all output files
04:19:52,531   INFO ScenarioRun:177 - Simulation of scenario part_2 finished.
